{"meta": {"limit": 20, "next": "/api/v1/listing/?username=ppp3&callback=angular.callbacks._0&api_key=170a41767f6ba69112aa51629e65490266110c7a&limit=20&offset=20", "offset": 0, "previous": null, "total_count": 51}, "objects": [{"active": true, "address_line1": "", "address_line2": "", "age": 5.0, "available": null, "breed": "Puggle", "breeder": null, "city": "Jaipur", "country": "India", "created_at": "2015-11-25T12:36:48.928390", "date_posted": "Nov 24", "description": "Best In Dogshub ﮑﮑﮑﮑPugﮑﮑﮑﮑ two excellent quality female pug pups for in jaipur", "gender": "M", "id": 11322, "is_liked": true, "listing_status": "U", "locality": "", "name": "Curious Stella", "phone": "+919950330009", "pic_thumbnail": ["https://petdom.s3.amazonaws.com/media/CACHE/images/photos/3799f9c245f8911aaba7766ce8a7b227fb52cd17/de7a7a3933f98b1094d5994c9a5f687c.jpg"], "pic_urls": ["https://petdom.s3.amazonaws.com/media/photos/3799f9c245f8911aaba7766ce8a7b227fb52cd17.jpg"], "pincode": "", "price": "25000.00", "resource_uri": "/api/v1/listing/11322/", "seller_name": "Virendra Singh", "source_type": "O", "state": "", "subtitle": null, "title": "+ToyBreed+ two excellent quality female pug in jaipur", "updated_at": "2015-11-28T17:39:21.434669", "verified": true}, {"active": true, "address_line1": "", "address_line2": "", "age": 0.0, "available": null, "breed": "Doberman Pinscher", "breeder": null, "city": "Delhi", "country": "India", "created_at": "2015-11-25T12:36:22.771714", "date_posted": "Nov 24", "description": "厺叀Doberman厺叀pups Top Quality champion lines puppies", "gender": "M", "id": 11318, "is_liked": false, "listing_status": "U", "locality": "", "name": "Playful Cookie", "phone": "+919555944924", "pic_thumbnail": ["https://petdom.s3.amazonaws.com/media/CACHE/images/photos/1654d833312ffcee49549fbbda4744541cc212fd/913b257a58c8ce93e00c252d10c83d9b.jpg"], "pic_urls": ["https://petdom.s3.amazonaws.com/media/photos/1654d833312ffcee49549fbbda4744541cc212fd.jpg"], "pincode": "", "price": "12000.00", "resource_uri": "/api/v1/listing/11318/", "seller_name": "Aryan", "source_type": "O", "state": "", "subtitle": null, "title": "厺叀Doberman厺叀pups Top Quality champion lines puppies", "updated_at": "2015-12-10T23:05:45.743845", "verified": true}, {"active": true, "address_line1": "", "address_line2": "", "age": null, "available": null, "breed": "Rottweiler", "breeder": null, "city": "Delhi", "country": "India", "created_at": "2015-11-17T21:33:11.320033", "date_posted": "Nov 16", "description": "I have don he won champion ship", "gender": "M", "id": 11250, "is_liked": true, "listing_status": "U", "locality": "", "name": "Adorable Shelby", "phone": "9289708132", "pic_thumbnail": ["https://petdom.s3.amazonaws.com/media/CACHE/images/photos/02c23b64d0dcb5b7e40823a120152448c5c29478/955c016b3a6475b1d9074b5d3dfa996b.jpg"], "pic_urls": ["https://petdom.s3.amazonaws.com/media/photos/02c23b64d0dcb5b7e40823a120152448c5c29478.jpg"], "pincode": "", "price": "1000.00", "resource_uri": "/api/v1/listing/11250/", "seller_name": "Kunal", "source_type": "O", "state": "", "subtitle": null, "title": "Mating 1 thausand per mating", "updated_at": "2015-12-03T02:16:42.407944", "verified": true}, {"active": true, "address_line1": "", "address_line2": "", "age": null, "available": null, "breed": "Rottweiler", "breeder": null, "city": "Delhi", "country": "India", "created_at": "2015-11-17T21:33:14.277441", "date_posted": "Nov 16", "description": "one months female puppy good health.i want good buyer.", "gender": "M", "id": 11251, "is_liked": true, "listing_status": "U", "locality": "", "name": "Upbeat Spike", "phone": "9999447059", "pic_thumbnail": ["https://petdom.s3.amazonaws.com/media/CACHE/images/photos/bc645adc70b5bcb9ae117ad81bde89e99b63005a/cbb242384718217a3b6511be0a44b2a7.jpg"], "pic_urls": ["https://petdom.s3.amazonaws.com/media/photos/bc645adc70b5bcb9ae117ad81bde89e99b63005a.jpg"], "pincode": "", "price": "5500.00", "resource_uri": "/api/v1/listing/11251/", "seller_name": "Madhur Tyagi", "source_type": "O", "state": "", "subtitle": null, "title": "Rottweiler female good health (qqqq447o5q mobile no)", "updated_at": "2015-12-10T16:55:11.620626", "verified": true}, {"active": true, "address_line1": "", "address_line2": "", "age": 287.0, "available": null, "breed": "American Eskimo Dog", "breeder": null, "city": "Gwalior", "country": "India", "created_at": "2015-12-02T16:34:23.934693", "date_posted": "Dec 02", "description": "ghsggkd", "gender": "M", "id": 11330, "is_liked": false, "listing_status": "V", "locality": "", "name": "puppy", "phone": null, "pic_thumbnail": ["https://petdom.s3.amazonaws.com/media/CACHE/images/photos/IMG-20151201-WA0004/141ea99a3a85249072fe6788d1dcbb82.jpg"], "pic_urls": ["https://petdom.s3.amazonaws.com/media/photos/IMG-20151201-WA0004.jpg"], "pincode": "", "price": "8096.00", "resource_uri": "/api/v1/listing/11330/", "seller_name": "", "source_type": "B", "state": "", "subtitle": null, "title": "", "updated_at": "2015-12-10T23:43:04.817324", "verified": true}, {"active": true, "address_line1": "", "address_line2": "", "age": null, "available": null, "breed": "Rottweiler", "breeder": null, "city": "Beas", "country": "India", "created_at": "2015-11-17T21:32:33.538330", "date_posted": "Nov 16", "description": "Rott female 9month old... exchange for  amrican pitbuĺl", "gender": "M", "id": 11246, "is_liked": false, "listing_status": "U", "locality": "", "name": "Great Charlie", "phone": "8146661189", "pic_thumbnail": ["https://petdom.s3.amazonaws.com/media/CACHE/images/photos/184af548ef172c683f7b4816f9b3b8b61aee60a1/e8dd5c74c4a62e426f5497d617866655.jpg"], "pic_urls": ["https://petdom.s3.amazonaws.com/media/photos/184af548ef172c683f7b4816f9b3b8b61aee60a1.jpg"], "pincode": "", "price": "17000.00", "resource_uri": "/api/v1/listing/11246/", "seller_name": "Ranjit Singh", "source_type": "O", "state": "", "subtitle": null, "title": "Rott female 9month exchange for amrican pitbuĺl", "updated_at": "2015-11-27T03:09:08.130742", "verified": true}, {"active": true, "address_line1": "", "address_line2": "", "age": null, "available": null, "breed": "German Shepherd Dog", "breeder": null, "city": "Hyderabad", "country": "India", "created_at": "2015-11-17T21:33:45.399906", "date_posted": "Nov 16", "description": "Prestigious breed  German Shepherd pups", "gender": "M", "id": 11257, "is_liked": false, "listing_status": "U", "locality": "", "name": "Curious Lexie", "phone": "8686265734", "pic_thumbnail": ["https://petdom.s3.amazonaws.com/media/CACHE/images/photos/51427bdacf4da0f82d8ef1247615c88210c0dec8/dceb3f1933a5cd6097217c3eaa2cffb8.jpg"], "pic_urls": ["https://petdom.s3.amazonaws.com/media/photos/51427bdacf4da0f82d8ef1247615c88210c0dec8.jpg"], "pincode": "", "price": "13000.00", "resource_uri": "/api/v1/listing/11257/", "seller_name": "Vijaypetpalace", "source_type": "O", "state": "", "subtitle": null, "title": "Prestigious Brand quality pups At vijaypetpalace call us", "updated_at": "2015-11-27T03:09:08.141525", "verified": true}, {"active": true, "address_line1": "Kalamassery", "address_line2": "", "age": null, "available": null, "breed": "German Shepherd Dog", "breeder": null, "city": "Kalamassery", "country": "India", "created_at": "2015-11-15T23:19:08.644896", "date_posted": "Nov 14", "description": "Advance booking started for KCI Certified  IMPORT lineage golden retriever male and female puppies. Pl call for more details.", "gender": "M", "id": 11229, "is_liked": false, "listing_status": "U", "locality": "", "name": "Distinct Sammy", "phone": "8089536802", "pic_thumbnail": ["https://petdom.s3.amazonaws.com/media/CACHE/images/photos/dd808a956c968070a853a2bde601b9c22f97a164/906823ddc336871bb6bb908e80152eb3.jpg"], "pic_urls": ["https://petdom.s3.amazonaws.com/media/photos/dd808a956c968070a853a2bde601b9c22f97a164.jpg"], "pincode": "", "price": "15000.00", "resource_uri": "/api/v1/listing/11229/", "seller_name": "Raj", "source_type": "O", "state": "", "subtitle": null, "title": "GSD PUPPIES : italy import lineage with KCI certificate n microchip", "updated_at": "2015-11-27T03:09:08.145036", "verified": true}, {"active": true, "address_line1": "", "address_line2": "", "age": 0.0, "available": null, "breed": "Doberman Pinscher", "breeder": null, "city": "Visakhapatnam", "country": "India", "created_at": "2015-11-25T12:36:30.679228", "date_posted": "Nov 24", "description": "Top quality heavy bone doberman puppys for sale.", "gender": "M", "id": 11319, "is_liked": false, "listing_status": "U", "locality": "", "name": "Precious Luna", "phone": "+919059733745", "pic_thumbnail": ["https://petdom.s3.amazonaws.com/media/CACHE/images/photos/4bd4ef9fc7325362e599d75e1d0225c011328b3d/92e27e865a790fe416c5dd960a96c7c4.jpg"], "pic_urls": ["https://petdom.s3.amazonaws.com/media/photos/4bd4ef9fc7325362e599d75e1d0225c011328b3d.jpg"], "pincode": "", "price": "9000.00", "resource_uri": "/api/v1/listing/11319/", "seller_name": "Royal Pets", "source_type": "O", "state": "", "subtitle": null, "title": "%Royal Pets%Doberman", "updated_at": "2015-11-27T03:09:08.126660", "verified": true}, {"active": true, "address_line1": "", "address_line2": "", "age": 3.0, "available": null, "breed": "Rottweiler", "breeder": null, "city": "LB Nagar", "country": "India", "created_at": "2015-11-25T01:36:59.053328", "date_posted": "Nov 24", "description": "Top quality rottweiler puppies r available for sale with kci certification \n///.", "gender": "M", "id": 11308, "is_liked": false, "listing_status": "U", "locality": "", "name": "Friendly Lexie", "phone": "+919959481977", "pic_thumbnail": ["https://petdom.s3.amazonaws.com/media/CACHE/images/photos/e0f5fd9d106cb580419b995b09076d9119b4ecb3/35042bd9bfd86c5fd5f84a7bbd055a2d.jpg"], "pic_urls": ["https://petdom.s3.amazonaws.com/media/photos/e0f5fd9d106cb580419b995b09076d9119b4ecb3.jpg"], "pincode": "", "price": "25000.00", "resource_uri": "/api/v1/listing/11308/", "seller_name": "Ajay", "source_type": "O", "state": "", "subtitle": null, "title": "We have Rottweiler puppies from import parental Pedigree", "updated_at": "2015-11-28T17:36:19.998671", "verified": true}, {"active": true, "address_line1": "", "address_line2": "", "age": null, "available": null, "breed": "German Shepherd Dog", "breeder": null, "city": "Kottayam", "country": "India", "created_at": "2015-11-17T21:46:46.018069", "date_posted": "Nov 16", "description": "Homeley litter Black and tan  colour, heavy bone, Show quality original breed, Male Female Germen shepherd Puppies for sale,  KCI regestred , Verey agressive parents at home", "gender": "M", "id": 11269, "is_liked": false, "listing_status": "U", "locality": "", "name": "Priceless Simba", "phone": "9947953887", "pic_thumbnail": ["https://petdom.s3.amazonaws.com/media/CACHE/images/photos/15274d4676cb391220b93edea192af4ceeccd2da/80f660f7996d623cfff146f79241665b.jpg"], "pic_urls": ["https://petdom.s3.amazonaws.com/media/photos/15274d4676cb391220b93edea192af4ceeccd2da.jpg"], "pincode": "", "price": "8000.00", "resource_uri": "/api/v1/listing/11269/", "seller_name": "Allen", "source_type": "O", "state": "", "subtitle": null, "title": "KCI Reg gsd puppy", "updated_at": "2015-11-27T03:09:08.163404", "verified": true}, {"active": true, "address_line1": "", "address_line2": "", "age": 6.0, "available": null, "breed": "German Shepherd Dog", "breeder": null, "city": "Madgaon", "country": "India", "created_at": "2015-11-25T01:37:03.603454", "date_posted": "Nov 24", "description": "Male 18500\r\nFemale 12500\r\n\r\nCall for Details \r\n\r\nO986O777723", "gender": "M", "id": 11309, "is_liked": false, "listing_status": "U", "locality": "", "name": "Wacky Ginger", "phone": "+919860777723", "pic_thumbnail": ["https://petdom.s3.amazonaws.com/media/CACHE/images/photos/b09fe813e4af6cdee3c0fca11fd37cfb1f97d6fa/6d521d99c4a324f0e21455baa66b8fd1.jpg"], "pic_urls": ["https://petdom.s3.amazonaws.com/media/photos/b09fe813e4af6cdee3c0fca11fd37cfb1f97d6fa.jpg"], "pincode": "", "price": "18500.00", "resource_uri": "/api/v1/listing/11309/", "seller_name": "Sangfroid Kennel", "source_type": "O", "state": "", "subtitle": null, "title": "Bravo German Shepherd Puppies Female 12500 Male 18500", "updated_at": "2015-11-27T03:09:08.174018", "verified": true}, {"active": true, "address_line1": "", "address_line2": "", "age": 0.0, "available": null, "breed": "German Shepherd Dog", "breeder": null, "city": "Bengaluru", "country": "India", "created_at": "2015-11-24T19:56:28.936585", "date_posted": "Nov 23", "description": "Its 14  months female gsd show quality with papers and first heat  skip its just fresh  b**** Price slightly  negotiable", "gender": "M", "id": 11286, "is_liked": false, "listing_status": "U", "locality": "", "name": "Wild Prince", "phone": "+919035288534", "pic_thumbnail": ["https://petdom.s3.amazonaws.com/media/CACHE/images/photos/c264b1f001e6d77caf7996a0667a52246e916af5/f160c2affa9c67aeda47d06427300911.jpg"], "pic_urls": ["https://petdom.s3.amazonaws.com/media/photos/c264b1f001e6d77caf7996a0667a52246e916af5.jpg"], "pincode": "", "price": "16000.00", "resource_uri": "/api/v1/listing/11286/", "seller_name": "Praveen", "source_type": "O", "state": "", "subtitle": null, "title": "Show quality female Gsd with papers", "updated_at": "2015-11-27T03:09:08.155616", "verified": true}, {"active": true, "address_line1": "", "address_line2": "", "age": null, "available": null, "breed": "Puggle", "breeder": null, "city": "Thane", "country": "India", "created_at": "2015-11-17T21:46:37.182215", "date_posted": "Nov 16", "description": "Champion lineage pug female puppy available for sale. Pls feel free to call us.", "gender": "M", "id": 11266, "is_liked": false, "listing_status": "U", "locality": "", "name": "Pleasent Sally", "phone": "8097178055", "pic_thumbnail": ["https://petdom.s3.amazonaws.com/media/CACHE/images/photos/bf59bf3bc773b80c3fee1c40e1152a1eae0c19e1/5110dd999df4ba0e71a563e077eb2d43.jpg"], "pic_urls": ["https://petdom.s3.amazonaws.com/media/photos/bf59bf3bc773b80c3fee1c40e1152a1eae0c19e1.jpg"], "pincode": "", "price": "10000.00", "resource_uri": "/api/v1/listing/11266/", "seller_name": "Pets Kingdom", "source_type": "O", "state": "", "subtitle": null, "title": "Pug female puppy at cool rate", "updated_at": "2015-11-27T03:09:08.159668", "verified": true}, {"active": true, "address_line1": "", "address_line2": "", "age": 3.0, "available": null, "breed": "German Shepherd Dog", "breeder": null, "city": "Allahabad", "country": "India", "created_at": "2015-11-25T01:37:08.725995", "date_posted": "Nov 24", "description": "Show quality all breed pupps available here\nprovide topest quality pupps in low price", "gender": "M", "id": 11311, "is_liked": false, "listing_status": "U", "locality": "", "name": "Lucky Bentley", "phone": "+919696814527", "pic_thumbnail": ["https://petdom.s3.amazonaws.com/media/CACHE/images/photos/a250a348a0168c271e45d4c95711ac17fc85943d/d83b0b0a0516d72bb86d5f5dbbf4215f.jpg"], "pic_urls": ["https://petdom.s3.amazonaws.com/media/photos/a250a348a0168c271e45d4c95711ac17fc85943d.jpg"], "pincode": "", "price": "6000.00", "resource_uri": "/api/v1/listing/11311/", "seller_name": "Raj Kennel", "source_type": "O", "state": "", "subtitle": null, "title": "We provide pure line german ~ labrador..Rottweiler only U", "updated_at": "2015-11-27T03:09:08.185327", "verified": true}, {"active": true, "address_line1": "", "address_line2": "", "age": 0.0, "available": null, "breed": "Saint Bernard", "breeder": null, "city": "Murwara Katni", "country": "India", "created_at": "2015-11-24T19:59:42.845033", "date_posted": "Nov 23", "description": "(pet shop )ǂǂ poodle ǂǂ sell call now ǂǂ", "gender": "M", "id": 11288, "is_liked": false, "listing_status": "U", "locality": "", "name": "Precious Bonnie", "phone": "+919015606053", "pic_thumbnail": ["https://petdom.s3.amazonaws.com/media/CACHE/images/photos/a9b3333ea999415736017be6c6adf647969027af/c25823d27013fc363c8d0914e3bde3d8.jpg"], "pic_urls": ["https://petdom.s3.amazonaws.com/media/photos/a9b3333ea999415736017be6c6adf647969027af.jpg"], "pincode": "", "price": "50000.00", "resource_uri": "/api/v1/listing/11288/", "seller_name": "Kiran Kennel", "source_type": "O", "state": "", "subtitle": null, "title": "(pet shop )ǂǂ poodle ǂǂ sell call now ǂǂ", "updated_at": "2015-11-27T03:09:08.203240", "verified": true}, {"active": true, "address_line1": "Morbi", "address_line2": "", "age": null, "available": null, "breed": "Bullmastiff", "breeder": null, "city": "Morbi", "country": "India", "created_at": "2015-11-15T23:19:23.712344", "date_posted": "Nov 14", "description": "bull mastiff pups 4 loving homes ~~om KENNEL..", "gender": "M", "id": 11231, "is_liked": false, "listing_status": "U", "locality": "", "name": "Brave Charlie", "phone": "8601110999", "pic_thumbnail": ["https://petdom.s3.amazonaws.com/media/CACHE/images/photos/c8fb7c47282d3ee5f0cf1bb45de4bcbc8ac9c2de/34b22840f49de9629617a530d5cd908f.jpg"], "pic_urls": ["https://petdom.s3.amazonaws.com/media/photos/c8fb7c47282d3ee5f0cf1bb45de4bcbc8ac9c2de.jpg"], "pincode": "", "price": "22000.00", "resource_uri": "/api/v1/listing/11231/", "seller_name": "Raj", "source_type": "O", "state": "", "subtitle": null, "title": "Bull mastiff pups 4 loving homes ~~om KENNEL..", "updated_at": "2015-11-28T17:36:18.472193", "verified": true}, {"active": true, "address_line1": "", "address_line2": "", "age": null, "available": null, "breed": "German Shepherd Dog", "breeder": null, "city": "Gurgaon", "country": "India", "created_at": "2015-11-17T21:33:34.094509", "date_posted": "Nov 16", "description": "Best quality german shepherd adult female dog for sale", "gender": "M", "id": 11253, "is_liked": false, "listing_status": "U", "locality": "", "name": "Fast Oliver", "phone": "8376933385", "pic_thumbnail": ["https://petdom.s3.amazonaws.com/media/CACHE/images/photos/ded9e80c6cc7ee7681ab947eabffd25a86016c89/ef4eafc6e5ecae498920a989beb1e2e5.jpg"], "pic_urls": ["https://petdom.s3.amazonaws.com/media/photos/ded9e80c6cc7ee7681ab947eabffd25a86016c89.jpg"], "pincode": "", "price": "5000.00", "resource_uri": "/api/v1/listing/11253/", "seller_name": "Kohli Kennel", "source_type": "O", "state": "", "subtitle": null, "title": "Top quality Adult German shepherd female", "updated_at": "2015-12-10T23:06:17.907794", "verified": true}, {"active": true, "address_line1": "Hyderabad", "address_line2": "", "age": null, "available": null, "breed": "Boxer", "breeder": null, "city": "Hyderabad", "country": "India", "created_at": "2015-11-15T23:19:40.413267", "date_posted": "Nov 14", "description": "My boxer puppies want new friends if you want a good friend call us on this num is ' 95'42'93'30'37", "gender": "M", "id": 11235, "is_liked": false, "listing_status": "U", "locality": "", "name": "Adorable Charlie", "phone": "9542933037", "pic_thumbnail": ["https://petdom.s3.amazonaws.com/media/CACHE/images/photos/edd6d53da32a541ab7b915d7b12722790ad3f6fc/584130e1275ea2272c34c5feae42b6e2.jpg"], "pic_urls": ["https://petdom.s3.amazonaws.com/media/photos/edd6d53da32a541ab7b915d7b12722790ad3f6fc.jpg"], "pincode": "", "price": "18000.00", "resource_uri": "/api/v1/listing/11235/", "seller_name": "Naveen", "source_type": "O", "state": "", "subtitle": null, "title": "Boxer puppies here amazing prices healthy puppies", "updated_at": "2015-11-27T03:09:08.224660", "verified": true}, {"active": true, "address_line1": "Bargarh", "address_line2": "", "age": null, "available": null, "breed": "Rottweiler", "breeder": null, "city": "Bargarh", "country": "India", "created_at": "2015-11-15T23:20:15.598978", "date_posted": "Nov 14", "description": "I want money urgent I am going out of station.i don't want sell my puppy those who not love dogs.price can be slightly negotiable.puppy is in BTM lay out Banglore", "gender": "M", "id": 11237, "is_liked": false, "listing_status": "U", "locality": "", "name": "Curious Katie", "phone": "9535460505", "pic_thumbnail": ["https://petdom.s3.amazonaws.com/media/CACHE/images/photos/0488e8af6f4907eca8729960fed345adc93dd021/576977affe36c4d1e2f00619d9da134d.jpg"], "pic_urls": ["https://petdom.s3.amazonaws.com/media/photos/0488e8af6f4907eca8729960fed345adc93dd021.jpg"], "pincode": "", "price": "10000.00", "resource_uri": "/api/v1/listing/11237/", "seller_name": "Abhijeet", "source_type": "O", "state": "", "subtitle": null, "title": "Rottwier male top 10 breeds in Banglore ideal time to take home.", "updated_at": "2015-11-27T03:09:08.228320", "verified": true}]}
